\relax 
\providecommand\hyper@newdestlabel[2]{}
\bbl@beforestart
\catcode `"\active 
\providecommand\HyperFirstAtBeginDocument{\AtBeginDocument}
\HyperFirstAtBeginDocument{\ifx\hyper@anchor\@undefined
\global\let\oldcontentsline\contentsline
\gdef\contentsline#1#2#3#4{\oldcontentsline{#1}{#2}{#3}}
\global\let\oldnewlabel\newlabel
\gdef\newlabel#1#2{\newlabelxx{#1}#2}
\gdef\newlabelxx#1#2#3#4#5#6{\oldnewlabel{#1}{{#2}{#3}}}
\AtEndDocument{\ifx\hyper@anchor\@undefined
\let\contentsline\oldcontentsline
\let\newlabel\oldnewlabel
\fi}
\fi}
\global\let\hyper@last\relax 
\gdef\HyperFirstAtBeginDocument#1{#1}
\providecommand\HyField@AuxAddToFields[1]{}
\providecommand\HyField@AuxAddToCoFields[2]{}
\babel@aux{russian}{}
\@writefile{toc}{\contentsline {subsection}{\numberline {0.0.1}Каково назначение прибора ST 031?}{4}{subsection.0.0.1}\protected@file@percent }
\@writefile{toc}{\contentsline {subsection}{\numberline {0.0.2}Назовите режимы работы прибора ST 031.}{4}{subsection.0.0.2}\protected@file@percent }
\@writefile{toc}{\contentsline {subsection}{\numberline {0.0.3} Для чего нужно устройство «ТЕСТ-031» и как им пользоваться?}{4}{subsection.0.0.3}\protected@file@percent }
\@writefile{toc}{\contentsline {subsection}{\numberline {0.0.4} Какие встроенные устройства имеются в приборе и для чего они используются?}{4}{subsection.0.0.4}\protected@file@percent }
\@writefile{toc}{\contentsline {subsection}{\numberline {0.0.5} Какие устройства несанкционированного съёма информации можно определить прибором ST 031?}{4}{subsection.0.0.5}\protected@file@percent }
\@writefile{toc}{\contentsline {subsection}{\numberline {0.0.6} Для чего в ST 031 нужен амплитудный детектор?}{5}{subsection.0.0.6}\protected@file@percent }
\@writefile{toc}{\contentsline {subsection}{\numberline {0.0.7} В чём суть метода акустической обратной связи?}{5}{subsection.0.0.7}\protected@file@percent }
\@writefile{toc}{\contentsline {subsection}{\numberline {0.0.8} Амплитудный метод детектирования.}{5}{subsection.0.0.8}\protected@file@percent }
\@writefile{toc}{\contentsline {subsection}{\numberline {0.0.9} Можно ли использовать ST 031 для обследования электрических силовых кабелей?}{6}{subsection.0.0.9}\protected@file@percent }
\@writefile{toc}{\contentsline {subsection}{\numberline {0.0.10} Как использовать прибор для контроля проводных линий?}{6}{subsection.0.0.10}\protected@file@percent }
\@writefile{toc}{\contentsline {subsection}{\numberline {0.0.11} Какой сигнал может быть зарегистрирован в проводных линиях при утечке информации?}{6}{subsection.0.0.11}\protected@file@percent }
\@writefile{toc}{\contentsline {subsection}{\numberline {0.0.12} Можно ли с помощью прибора ST 031 предотвратить утечку по оптическому каналу и как это осуществить?}{6}{subsection.0.0.12}\protected@file@percent }
\@writefile{toc}{\contentsline {subsection}{\numberline {0.0.13} Можно ли с помощью прибора ST 031 предотвратить утечку по акустическому и вибро-акустическому каналам?}{6}{subsection.0.0.13}\protected@file@percent }
\@writefile{toc}{\contentsline {subsection}{\numberline {0.0.14} Какие поисковые приборы нельзя использовать одновременно с прибором ST 031?}{7}{subsection.0.0.14}\protected@file@percent }
\@writefile{toc}{\contentsline {subsection}{\numberline {0.0.15} Как подключить ST 031 к компьютеру?}{7}{subsection.0.0.15}\protected@file@percent }
\@writefile{toc}{\contentsline {subsection}{\numberline {0.0.16} Какие преимущества дает работа прибора с компьютером?}{7}{subsection.0.0.16}\protected@file@percent }
